1,1,717.55,582.26,385.79999999999995,509.26,1,1,1.0
1,2,537.51,1320.43,442.38,282.91999999999985,1,1,1.0
1,3,910.44,1212.39,586.4199999999998,318.92999999999984,1,1,1.0
1,4,1982.96,273.61,614.71,308.64,1,1,1.0
1,5,2445.93,960.34,707.3000000000002,475.82000000000005,1,1,1.0
1,6,1633.17,718.57,527.2599999999998,298.3499999999999,1,1,1.0
1,7,1723.19,1415.58,753.5999999999999,437.24,1,1,1.0
1,8,1378.54,867.74,239.20000000000005,447.53,1,1,1.0
1,9,1700.04,1034.92,390.9499999999998,401.24,1,1,1.0
2,10,2170.72,610.54,432.10000000000036,226.34000000000003,1,1,1.0
2,1,717.55,582.26,349.75,509.26,1,1,1.0
2,2,537.51,1320.43,442.38,311.16999999999985,1,1,1.0
2,3,910.44,1212.39,573.56,318.92999999999984,1,1,1.0
2,4,1983.33,273.61,614.3400000000001,308.64,1,1,1.0
2,5,2448.48,960.34,704.75,492.9599999999999,1,1,1.0
2,6,1633.17,718.57,501.52999999999975,354.92999999999995,1,1,1.0
2,7,1723.19,1415.58,781.9099999999999,414.1200000000001,1,1,1.0
2,8,1357.97,777.72,239.19000000000005,447.53,1,1,1.0
2,9,1890.37,839.46,529.8600000000001,246.89999999999986,1,1,1.0
2,10,2170.72,610.54,432.10000000000036,226.34000000000003,1,1,1.0
3,1,532.37,608.0,511.83000000000004,282.9,1,1,1.0
3,2,537.51,1320.43,442.38,319.74,1,1,1.0
3,3,896.27,1212.39,587.73,318.92999999999984,1,1,1.0
3,4,1983.7,273.61,613.97,308.64,1,1,1.0
3,5,2451.04,960.34,702.19,510.11,1,1,1.0
3,6,1622.88,718.57,457.8199999999997,393.52999999999986,1,1,1.0
3,7,1723.19,1415.58,745.9099999999999,357.52,1,1,1.0
3,8,1280.84,710.85,491.26,360.05000000000007,1,1,1.0
3,9,1419.7,489.66,506.70000000000005,331.73999999999995,1,1,1.0
3,10,2224.73,615.69,432.0999999999999,303.51,1,1,1.0
4,1,501.5,605.43,527.27,282.9000000000001,1,1,1.0
4,2,537.51,1320.43,442.38,328.29999999999995,1,1,1.0
4,3,882.1,1212.39,601.9,318.92999999999984,1,1,1.0
4,4,1984.06,273.61,613.6100000000001,308.64,1,1,1.0
4,5,2453.6,960.34,699.6300000000001,527.2599999999999,1,1,1.0
4,6,1527.72,788.01,488.68000000000006,264.8900000000001,1,1,1.0
4,7,1766.9,1423.3,702.1999999999998,349.79999999999995,1,1,1.0
4,8,1211.4,595.11,321.5,532.39,1,1,1.0
4,9,1841.5,785.44,267.5,529.76,1,1,1.0
4,10,2089.7,664.54,505.4200000000001,289.36,1,1,1.0
5,1,594.1,605.43,434.66999999999996,357.47,1,1,1.0
5,2,537.51,1320.43,442.38,336.8699999999999,1,1,1.0
5,3,884.65,1196.95,599.35,334.3699999999999,1,1,1.0
5,4,1984.43,273.61,613.24,308.64,1,1,1.0
5,5,2453.6,960.34,695.7600000000002,542.7099999999999,1,1,1.0
5,6,1478.9,780.3,498.91999999999985,264.8800000000001,1,1,1.0
5,7,1730.9,1415.6,724.0499999999997,353.6400000000001,1,1,1.0
5,8,1273.13,582.25,354.9699999999998,532.3900000000001,1,1,1.0
5,9,1676.9,1101.8,393.5,321.4000000000001,1,1,1.0
5,10,1954.67,713.4,578.73,275.20000000000005,1,1,1.0
6,1,542.7,613.14,465.49,300.86,1,1,1.0
6,2,475.8,1315.28,488.66,264.81999999999994,1,1,1.0
6,3,887.2,1181.5,596.8,349.81999999999994,1,1,1.0
6,4,1984.8,273.61,612.8700000000001,308.64,1,1,1.0
6,5,2453.6,960.34,691.9000000000001,558.16,1,1,1.0
6,6,1455.75,826.6,498.9200000000001,218.58000000000004,1,1,1.0
6,7,1694.9,1407.9,745.9099999999999,357.48,1,1,1.0
6,8,1203.68,497.38,318.91999999999985,532.38,1,1,1.0
6,9,1656.32,1135.24,393.5000000000002,321.4000000000001,1,1,1.0
6,10,1517.43,548.79,522.1699999999998,367.81000000000006,1,1,1.0
7,1,542.7,628.58,426.9,241.68999999999994,1,1,1.0
7,2,461.65,1315.28,502.81000000000006,264.81999999999994,1,1,1.0
7,3,887.2,1186.65,596.8,327.9599999999998,1,1,1.0
7,4,1985.17,273.61,612.5,308.64,1,1,1.0
7,5,2472.9,960.34,672.5999999999999,558.16,1,1,1.0
7,6,1358.02,839.46,498.9200000000001,290.6399999999999,1,1,1.0
7,7,1693.61,1404.04,742.0600000000002,392.19000000000005,1,1,1.0
7,8,987.66,543.67,493.7400000000001,434.63,1,1,1.0
7,9,1661.47,1175.11,393.4999999999998,307.25,1,1,1.0
7,10,1517.43,620.8,571.0699999999999,272.70000000000005,1,1,1.0
8,1,542.7,628.58,447.5,252.01999999999998,1,1,1.0
8,2,447.5,1315.28,516.96,264.81999999999994,1,1,1.0
8,3,887.2,1191.8,596.8,306.10000000000014,1,1,1.0
8,4,1985.53,273.61,612.1400000000001,308.64,1,1,1.0
8,5,2492.2,960.34,653.3000000000002,558.16,1,1,1.0
8,6,1334.9,839.46,586.3,267.53999999999996,1,1,1.0
8,7,1692.33,1400.18,738.2000000000003,426.89999999999986,1,1,1.0
8,8,974.79,528.24,295.71000000000004,612.06,1,1,1.0
8,9,1666.61,1214.98,393.5000000000002,293.0999999999999,1,1,1.0
8,10,1610.0,618.23,488.78999999999996,272.69999999999993,1,1,1.0
9,1,537.6,608.0,411.4,324.0,1,1,1.0
9,2,483.5,1289.56,473.25,311.1700000000001,1,1,1.0
9,3,905.2,1163.51,546.8299999999999,338.43000000000006,1,1,1.0
9,4,1985.9,273.61,611.77,308.64,1,1,1.0
9,5,2489.63,944.9,673.9000000000001,527.3000000000001,1,1,1.0
9,6,1396.66,834.32,519.3999999999999,267.53999999999985,1,1,1.0
9,7,1692.33,1400.18,738.2000000000003,411.41999999999985,1,1,1.0
9,8,974.79,484.52,295.71000000000004,709.78,1,1,1.0
9,9,1666.61,1214.98,398.6500000000003,293.0999999999999,1,1,1.0
9,10,1568.8,638.8,529.99,252.13,1,1,1.0
10,1,591.6,608.0,357.4,455.20000000000005,1,1,1.0
10,2,488.0,1289.56,468.75,311.1700000000001,1,1,1.0
10,3,923.2,1135.22,496.8599999999999,370.77,1,1,1.0
10,4,1986.27,273.61,611.4000000000001,308.64,1,1,1.0
10,5,2489.63,944.9,673.9200000000001,508.42999999999995,1,1,1.0
10,6,1381.22,770.0,519.3999999999999,308.71000000000004,1,1,1.0
10,7,1692.33,1400.18,743.3299999999999,402.67999999999984,1,1,1.0
10,8,928.5,852.4,550.3,380.48000000000013,1,1,1.0
10,9,1666.61,1214.98,403.7900000000002,293.0999999999999,1,1,1.0
10,10,1615.1,448.47,244.5,509.3299999999999,1,1,1.0
11,1,583.88,631.15,421.72,465.44999999999993,1,1,1.0
11,2,492.5,1289.56,464.25,311.1700000000001,1,1,1.0
11,3,941.2,1106.93,446.8899999999999,403.0999999999999,1,1,1.0
11,4,1986.63,273.61,611.04,308.64,1,1,1.0
11,5,2489.63,944.9,673.9499999999998,489.57000000000005,1,1,1.0
11,6,1432.7,715.99,442.20000000000005,360.1099999999999,1,1,1.0
11,7,1692.33,1400.18,748.4700000000003,393.9399999999998,1,1,1.0
11,8,1242.3,947.6,478.29999999999995,236.39999999999998,1,1,1.0
11,9,1629.32,1217.56,403.78999999999996,293.09000000000015,1,1,1.0
11,10,1527.7,466.5,331.89999999999986,488.73,1,1,1.0
12,1,612.18,831.8,593.9900000000001,295.6600000000001,1,1,1.0
12,2,497.0,1289.56,459.75,311.1700000000001,1,1,1.0
12,3,959.2,1078.63,396.90999999999985,435.4399999999998,1,1,1.0
12,4,1987.0,273.61,610.6700000000001,308.64,1,1,1.0
12,5,2489.63,944.9,673.9699999999998,470.69999999999993,1,1,1.0
12,6,1458.4,672.3,395.89999999999986,403.79999999999995,1,1,1.0
12,7,1692.33,1400.18,753.5999999999999,385.20000000000005,1,1,1.0
12,8,1288.6,945.03,439.70000000000005,236.4000000000001,1,1,1.0
12,9,1592.02,1220.13,403.78999999999996,293.0899999999999,1,1,1.0
12,10,1553.4,474.22,329.29999999999995,504.17999999999995,1,1,1.0
13,1,565.9,821.51,627.41,285.3900000000001,1,1,1.0
13,2,501.5,1289.56,455.25,311.1700000000001,1,1,1.0
13,3,977.2,1050.34,346.94000000000005,467.77,1,1,1.0
13,4,1987.37,273.61,610.3000000000002,308.64,1,1,1.0
13,5,2489.63,944.9,686.8699999999999,468.1,1,1,1.0
13,6,1409.48,638.86,408.80999999999995,426.94999999999993,1,1,1.0
13,7,1692.33,1400.18,758.7400000000002,376.46000000000004,1,1,1.0
13,8,1363.2,914.2,323.89999999999986,323.79999999999995,1,1,1.0
13,9,1561.16,1222.7,403.78999999999996,293.0899999999999,1,1,1.0
13,10,1633.13,502.51,347.3399999999999,452.73,1,1,1.0
14,1,576.19,767.5,627.4099999999999,339.4000000000001,1,1,1.0
14,2,486.93,1293.85,472.39000000000004,306.8700000000001,1,1,1.0
14,3,995.2,1022.05,296.97,500.1100000000001,1,1,1.0
14,4,1987.73,273.61,609.94,308.64,1,1,1.0
14,5,2489.63,944.9,679.1700000000001,468.1,1,1,1.0
14,6,1363.2,623.4,455.0899999999999,442.40999999999997,1,1,1.0
14,7,1692.33,1400.18,763.8699999999999,367.72,1,1,1.0
14,8,1388.9,885.91,295.6299999999999,323.80000000000007,1,1,1.0
14,9,1144.49,1425.89,403.78999999999996,244.2099999999998,1,1,1.0
14,10,1550.8,533.4,488.79999999999995,288.1,1,1,1.0
15,1,632.77,739.21,627.4100000000001,311.14999999999986,1,1,1.0
15,2,472.37,1298.14,489.52,302.56999999999994,1,1,1.0
15,3,1013.2,993.76,247.0,532.44,1,1,1.0
15,4,1988.1,273.61,609.5700000000002,308.64,1,1,1.0
15,5,2489.63,944.9,671.4699999999998,468.1,1,1,1.0
15,6,1347.77,618.26,413.93000000000006,442.4100000000001,1,1,1.0
15,7,1676.9,1400.18,820.5,354.81999999999994,1,1,1.0
15,8,1409.5,842.2,275.03,367.51,1,1,1.0
15,9,648.1,950.07,398.6,480.83000000000004,1,1,1.0
15,10,1769.42,497.39,298.50999999999976,555.61,1,1,1.0
16,1,689.4,602.89,470.5000000000001,450.0100000000001,1,1,1.0
16,2,457.8,1302.42,506.66,298.28,1,1,1.0
16,3,956.6,947.5,316.4599999999999,563.27,1,1,1.0
16,4,1988.47,273.61,609.2,308.64,1,1,1.0
16,5,2489.63,944.9,663.77,468.1,1,1,1.0
16,6,1432.6,502.52,269.9000000000001,486.18000000000006,1,1,1.0
16,7,1648.61,1389.9,820.5000000000002,354.80999999999995,1,1,1.0
16,8,1404.36,842.2,275.0200000000002,367.51,1,1,1.0
16,9,437.2,734.0,388.3,444.79999999999995,1,1,1.0
16,10,1658.8,582.27,401.41999999999985,470.73,1,1,1.0
17,1,604.52,710.9,470.5,303.4200000000001,1,1,1.0
17,2,506.7,1302.42,457.76000000000005,298.28,1,1,1.0
17,3,956.6,947.5,370.4999999999999,486.0999999999999,1,1,1.0
17,4,1988.83,273.61,608.8400000000001,308.64,1,1,1.0
17,5,2489.63,944.9,663.77,447.5000000000001,1,1,1.0
17,6,1437.74,556.5,413.96000000000004,398.79999999999995,1,1,1.0
17,7,1674.3,1333.3,748.5000000000002,411.4100000000001,1,1,1.0
17,8,1342.66,901.32,434.5,316.1,1,1,1.0
17,9,172.28,875.5,421.72,262.0999999999999,1,1,1.0
17,10,1730.86,587.41,334.5000000000002,470.73000000000013,1,1,1.0
18,1,573.61,731.48,401.11,334.25,1,1,1.0
18,2,542.7,1302.42,411.5,339.48,1,1,1.0
18,3,956.6,919.21,427.1,493.78999999999996,1,1,1.0
18,4,1989.2,273.61,608.47,308.64,1,1,1.0
18,5,2463.91,921.76,743.4900000000002,408.94000000000005,1,1,1.0
18,6,1460.89,559.1,511.7099999999998,316.5,1,1,1.0
18,7,1707.74,1397.59,769.0600000000002,367.70000000000005,1,1,1.0
18,8,1389.0,819.01,401.02,352.0899999999999,1,1,1.0
18,9,223.7,924.37,254.60000000000002,491.0300000000001,1,1,1.0
18,10,1599.7,638.9,465.6600000000001,419.2400000000001,1,1,1.0
19,1,343.37,905.4,429.23,311.2700000000001,1,1,1.0
19,2,524.8,1302.42,429.4000000000001,320.28,1,1,1.0
19,3,992.42,970.37,498.67999999999995,455.42999999999995,1,1,1.0
19,4,1989.57,273.61,608.1000000000001,308.64,1,1,1.0
19,5,2476.7,931.99,728.19,408.94000000000005,1,1,1.0
19,6,1655.32,687.0,657.5800000000002,242.29999999999995,1,1,1.0
19,7,1707.74,1361.77,735.76,367.70000000000005,1,1,1.0
19,8,1409.5,665.51,370.28,449.28999999999996,1,1,1.0
19,9,118.81,1047.2,264.79,511.47,1,1,1.0
19,10,1632.96,815.4,478.44000000000005,229.94999999999993,1,1,1.0
20,1,640.13,1012.85,429.2299999999999,311.26999999999987,1,1,1.0
20,2,506.9,1302.42,447.30000000000007,301.0799999999999,1,1,1.0
20,3,992.42,970.37,383.58000000000004,455.42999999999995,1,1,1.0
20,4,1989.93,273.61,607.74,308.64,1,1,1.0
20,5,2476.7,931.99,835.6000000000004,408.94000000000005,1,1,1.0
20,6,2118.4,669.09,511.73,242.29999999999995,1,1,1.0
20,7,1707.74,1361.77,761.3599999999999,367.70000000000005,1,1,1.0
20,8,1414.62,586.21,406.08000000000015,300.89,1,1,1.0
20,9,1034.68,691.6,431.02,452.6,1,1,1.0
20,10,1648.3,815.4,498.89999999999986,253.0000000000001,1,1,1.0
21,1,560.8,946.33,378.1,416.16999999999996,1,1,1.0
21,2,476.2,1302.42,478.00000000000006,301.0799999999999,1,1,1.0
21,3,882.4,1057.4,493.6,314.6999999999998,1,1,1.0
21,4,1990.3,273.61,607.3700000000001,308.64,1,1,1.0
21,5,2476.7,960.1,728.2000000000003,380.83000000000004,1,1,1.0
21,6,2264.22,617.9,511.73,267.90999999999997,1,1,1.0
21,7,1682.15,1397.6,761.3699999999999,331.8700000000001,1,1,1.0
21,8,1401.82,509.46,457.28,346.94,1,1,1.0
21,9,1387.7,985.8,234.0,398.9000000000001,1,1,1.0
21,10,1648.3,815.4,527.0000000000002,253.0000000000001,1,1,1.0
22,1,548.01,851.7,344.76,510.79999999999995,1,1,1.0
22,2,465.97,1304.98,478.0,247.37999999999988,1,1,1.0
22,3,966.82,914.1,475.67999999999995,457.9999999999999,1,1,1.0
22,4,1990.67,273.61,607.0,308.64,1,1,1.0
22,5,2476.7,960.1,746.1000000000004,380.83000000000004,1,1,1.0
22,6,2353.8,530.9,220.0,500.69999999999993,1,1,1.0
22,7,1682.15,1397.6,779.25,331.8700000000001,1,1,1.0
22,8,1560.44,519.69,431.65999999999985,377.6099999999999,1,1,1.0
22,9,1461.89,1001.15,234.0,398.9,1,1,1.0
22,10,1595.85,761.7,495.0500000000002,324.5999999999999,1,1,1.0
23,1,601.73,749.37,395.97,510.80000000000007,1,1,1.0
23,2,504.3,1328.0,455.02000000000004,257.5999999999999,1,1,1.0
23,3,1030.8,886.0,340.10000000000014,529.5999999999999,1,1,1.0
23,4,1991.03,273.61,606.6400000000001,308.64,1,1,1.0
23,5,2476.7,932.0,702.6000000000004,429.4000000000001,1,1,1.0
23,6,2010.99,710.0,514.2099999999998,326.70000000000005,1,1,1.0
23,7,1666.83,1397.6,832.9200000000001,331.8700000000001,1,1,1.0
23,8,1816.2,432.71,250.08999999999992,525.99,1,1,1.0
23,9,1507.9,1001.15,187.99,398.9,1,1,1.0
23,10,1543.4,708.0,463.0999999999999,396.20000000000005,1,1,1.0
24,1,619.64,821.0,562.2600000000001,362.4200000000001,1,1,1.0
24,2,524.74,1312.63,432.02,270.40999999999985,1,1,1.0
24,3,1030.8,886.0,324.79999999999995,527.0,1,1,1.0
24,4,1991.4,273.61,606.27,308.64,1,1,1.0
24,5,2476.7,932.0,710.25,429.4000000000001,1,1,1.0
24,6,1918.89,878.85,537.2099999999998,326.69999999999993,1,1,1.0
24,7,1651.5,1397.6,886.5999999999999,331.8700000000001,1,1,1.0
24,8,1719.0,859.94,267.98,428.76,1,1,1.0
24,9,1502.78,1065.11,187.99,398.9000000000001,1,1,1.0
24,10,1494.8,667.07,386.29999999999995,414.13,1,1,1.0
25,1,660.6,777.5,439.4,423.79999999999995,1,1,1.0
25,2,523.46,1296.0,426.91999999999996,290.8800000000001,1,1,1.0
25,3,1010.33,791.3,324.80000000000007,596.1200000000001,1,1,1.0
25,4,1991.77,273.61,605.9000000000001,308.64,1,1,1.0
25,5,2476.7,932.0,717.9000000000001,429.4000000000001,1,1,1.0
25,6,1806.3,878.85,667.7100000000003,237.14999999999998,1,1,1.0
25,7,1651.5,1397.6,858.5,331.8700000000001,1,1,1.0
25,8,1719.0,921.3,321.70000000000005,367.4000000000001,1,1,1.0
25,9,1364.63,1326.1,221.26999999999998,319.5500000000002,1,1,1.0
25,10,1410.4,559.62,427.1999999999998,414.13,1,1,1.0
26,1,627.34,813.3,439.4,380.33000000000015,1,1,1.0
26,2,522.18,1279.38,421.82000000000005,311.3399999999999,1,1,1.0
26,3,1010.33,791.3,324.80000000000007,537.3,1,1,1.0
26,4,1992.13,273.61,605.54,308.64,1,1,1.0
26,5,2476.7,932.0,705.1000000000004,429.4000000000001,1,1,1.0
26,6,1565.82,763.72,613.9800000000002,237.15999999999997,1,1,1.0
26,7,1637.43,1397.6,849.5800000000002,331.8700000000001,1,1,1.0
26,8,1621.8,918.74,390.76,313.6600000000001,1,1,1.0
26,9,1363.49,1335.1,223.51,307.71000000000004,1,1,1.0
26,10,1438.54,534.04,498.8600000000001,414.13,1,1,1.0
27,1,627.34,782.6,357.55999999999995,451.9999999999999,1,1,1.0
27,2,575.9,1269.1,368.1,321.6200000000001,1,1,1.0
27,3,1010.33,750.35,311.9699999999999,562.9,1,1,1.0
27,4,1992.5,273.61,605.1700000000001,308.64,1,1,1.0
27,5,2476.7,932.0,689.8000000000002,429.4000000000001,1,1,1.0
27,6,1512.1,725.35,596.0999999999999,260.15,1,1,1.0
27,7,1623.36,1397.6,840.6700000000003,331.8700000000001,1,1,1.0
27,8,1621.8,914.05,389.04999999999995,313.6600000000001,1,1,1.0
27,9,1362.35,1344.11,225.75,295.8700000000001,1,1,1.0
27,10,1425.7,518.69,534.7,288.80999999999995,1,1,1.0
28,1,663.16,739.1,523.84,390.61,1,1,1.0
28,2,575.9,1281.89,368.1,321.6199999999999,1,1,1.0
28,3,995.0,750.35,327.29999999999995,552.65,1,1,1.0
28,4,1992.87,273.61,604.8000000000002,308.64,1,1,1.0
28,5,2476.7,932.0,696.2000000000003,429.4000000000001,1,1,1.0
28,6,1512.1,725.35,588.4000000000001,260.15,1,1,1.0
28,7,1623.36,1397.6,789.5400000000002,331.8700000000001,1,1,1.0
28,8,1621.8,909.36,387.34000000000015,313.65999999999997,1,1,1.0
28,9,1361.21,1353.11,227.99,284.0400000000002,1,1,1.0
28,10,1405.2,513.57,580.78,270.90999999999997,1,1,1.0
29,1,686.2,680.3,283.29999999999995,521.04,1,1,1.0
29,2,566.3,1275.49,377.70000000000005,322.8900000000001,1,1,1.0
29,3,995.0,735.0,327.29999999999995,550.0999999999999,1,1,1.0
29,4,1993.23,273.61,604.44,308.64,1,1,1.0
29,5,2476.7,932.0,702.6000000000004,429.4000000000001,1,1,1.0
29,6,1437.91,733.03,588.3999999999999,260.14,1,1,1.0
29,7,1651.5,1402.7,894.4000000000001,383.0999999999999,1,1,1.0
29,8,1621.8,904.67,385.6300000000001,313.65999999999997,1,1,1.0
29,9,1360.07,1362.11,230.23000000000002,272.21000000000004,1,1,1.0
29,10,1405.2,482.9,580.78,291.35,1,1,1.0
30,1,550.6,803.1,370.28999999999996,403.36,1,1,1.0
30,2,556.7,1269.1,387.29999999999995,324.1600000000001,1,1,1.0
30,3,1018.0,735.0,304.29999999999995,532.2,1,1,1.0
30,4,1993.6,273.61,604.0700000000002,308.64,1,1,1.0
30,5,2476.7,932.0,709.0,429.4000000000001,1,1,1.0
30,6,1445.6,733.03,552.6000000000001,260.14,1,1,1.0
30,7,1642.55,1402.7,893.1000000000001,363.89999999999986,1,1,1.0
30,8,1621.8,899.98,383.9200000000001,313.6600000000001,1,1,1.0
30,9,1358.93,1371.12,232.47000000000003,260.3600000000001,1,1,1.0
30,10,1397.5,490.58,591.04,278.55,1,1,1.0
31,1,392.0,800.54,393.29999999999995,364.96000000000004,1,1,1.0
31,2,547.1,1262.7,396.9,325.43000000000006,1,1,1.0
31,3,1002.65,642.92,304.30000000000007,568.0000000000001,1,1,1.0
31,4,1993.97,273.61,603.7,308.64,1,1,1.0
31,5,2476.7,932.0,715.4000000000001,429.4000000000001,1,1,1.0
31,6,1445.6,733.03,552.6000000000001,295.97,1,1,1.0
31,7,1633.6,1402.7,891.8000000000002,344.70000000000005,1,1,1.0
31,8,1621.8,895.29,382.21000000000004,313.6600000000001,1,1,1.0
31,9,1357.78,1380.12,234.72000000000003,248.5300000000002,1,1,1.0
31,10,1389.8,498.25,601.3,265.75,1,1,1.0
32,1,330.6,823.57,362.6,387.92999999999995,1,1,1.0
32,2,537.5,1256.3,406.5,326.70000000000005,1,1,1.0
32,3,943.8,673.6,447.56999999999994,455.4999999999999,1,1,1.0
32,4,1994.33,273.61,603.3400000000001,308.64,1,1,1.0
32,5,2476.7,932.0,751.2000000000003,416.5999999999999,1,1,1.0
32,6,1417.46,704.88,370.94000000000005,482.7199999999999,1,1,1.0
32,7,1633.6,1402.7,866.2000000000003,344.70000000000005,1,1,1.0
32,8,1621.8,890.6,380.5,313.65999999999997,1,1,1.0
32,9,1356.64,1389.12,236.9599999999998,236.70000000000005,1,1,1.0
32,10,1415.38,502.09,555.27,284.91,1,1,1.0
33,1,392.0,790.33,278.20000000000005,446.76999999999987,1,1,1.0
33,2,555.41,1243.51,416.69000000000005,388.0899999999999,1,1,1.0
33,3,885.0,714.5,506.3699999999999,348.0999999999999,1,1,1.0
33,4,1994.7,273.61,602.97,308.64,1,1,1.0
33,5,2476.7,921.8,725.6000000000004,442.10000000000014,1,1,1.0
33,6,1417.46,651.2,255.83999999999992,480.0999999999999,1,1,1.0
33,7,1618.25,1402.7,835.5500000000002,367.70000000000005,1,1,1.0
33,8,1649.94,859.9,221.96000000000004,357.19999999999993,1,1,1.0
33,9,1244.39,1395.2,239.2099999999998,224.8599999999999,1,1,1.0
33,10,1440.97,505.92,509.23,411.58,1,1,1.0
34,1,368.98,790.33,278.19999999999993,482.57000000000005,1,1,1.0
34,2,624.5,1179.6,309.20000000000005,452.0,1,1,1.0
34,3,1018.0,855.2,335.0,632.0699999999999,1,1,1.0
34,4,1995.07,273.61,602.6000000000001,308.64,1,1,1.0
34,5,2471.58,914.12,725.5999999999999,442.11,1,1,1.0
34,6,1417.46,602.59,355.6399999999999,480.1,1,1,1.0
34,7,1618.25,1402.7,784.3499999999999,367.70000000000005,1,1,1.0
34,8,1652.5,921.3,221.96000000000004,357.20000000000005,1,1,1.0
34,9,1136.95,1410.56,359.43000000000006,268.34000000000015,1,1,1.0
34,10,1512.6,511.04,509.23,411.58,1,1,1.0
35,1,368.98,790.33,278.19999999999993,431.37,1,1,1.0
35,2,632.17,1192.39,281.06000000000006,452.0,1,1,1.0
35,3,1066.6,947.3,304.3000000000002,534.8500000000001,1,1,1.0
35,4,1995.43,273.61,602.24,308.64,1,1,1.0
35,5,2471.58,914.12,784.4200000000001,442.11,1,1,1.0
35,6,1440.5,602.59,248.20000000000005,531.3100000000001,1,1,1.0
35,7,1618.25,1402.7,776.6799999999998,367.70000000000005,1,1,1.0
35,8,1657.62,882.93,221.95000000000005,357.20000000000016,1,1,1.0
35,9,1034.61,612.37,359.44000000000005,516.5300000000001,1,1,1.0
35,10,1448.64,526.4,555.26,278.5,1,1,1.0
36,1,368.98,774.98,516.1,318.76,1,1,1.0
36,2,642.41,1243.55,258.05000000000007,452.0,1,1,1.0
36,3,1064.04,965.2,258.26,591.0999999999999,1,1,1.0
36,4,1995.8,273.61,601.8700000000001,308.64,1,1,1.0
36,5,2471.58,924.36,751.1199999999999,442.1,1,1,1.0
36,6,1353.5,577.0,450.29999999999995,457.0999999999999,1,1,1.0
36,7,1618.25,1402.7,769.02,367.70000000000005,1,1,1.0
36,8,1626.9,811.29,326.89999999999986,400.71000000000004,1,1,1.0
36,9,1101.13,441.0,548.77,345.1,1,1,1.0
36,10,1474.2,531.5,532.26,355.27,1,1,1.0
37,1,527.59,693.1,618.41,272.69999999999993,1,1,1.0
37,2,642.41,1161.7,258.05000000000007,533.8499999999999,1,1,1.0
37,3,1000.08,1223.6,539.7199999999999,330.10000000000014,1,1,1.0
37,4,1995.8,273.61,604.2,308.64,1,1,1.0
37,5,2471.58,934.59,715.3200000000002,442.1,1,1,1.0
37,6,1356.06,722.8,567.94,262.69000000000005,1,1,1.0
37,7,1618.25,1402.7,761.3499999999999,367.70000000000005,1,1,1.0
37,8,1534.8,898.28,523.8999999999999,288.18000000000006,1,1,1.0
37,9,1101.13,441.0,515.4699999999998,345.1,1,1,1.0
37,10,1903.99,708.02,432.51,431.98,1,1,1.0
38,1,640.15,716.12,618.41,236.88,1,1,1.0
38,2,675.67,1064.5,429.5300000000001,467.31999999999994,1,1,1.0
38,3,872.2,1262.0,588.29,238.0,1,1,1.0
38,4,1995.8,273.61,606.53,308.64,1,1,1.0
38,5,2471.58,934.59,722.1500000000001,442.1,1,1,1.0
38,6,1675.85,699.8,567.94,239.6400000000001,1,1,1.0
38,7,1621.32,1402.7,761.3500000000001,367.70000000000005,1,1,1.0
38,8,1560.4,824.1,505.9699999999998,393.06000000000006,1,1,1.0
38,9,1106.24,433.33,515.48,345.09999999999997,1,1,1.0
38,10,1985.9,800.1,373.5999999999999,521.5400000000001,1,1,1.0
39,1,606.9,695.66,592.8000000000001,236.87,1,1,1.0
39,2,637.3,1061.94,462.78,408.46000000000004,1,1,1.0
39,3,913.13,1292.7,626.67,238.0,1,1,1.0
39,4,1995.8,273.61,608.8599999999999,308.64,1,1,1.0
39,5,2471.58,934.59,728.9900000000002,442.1,1,1,1.0
39,6,2000.7,559.09,465.6600000000001,418.74,1,1,1.0
39,7,1624.39,1402.7,761.3499999999997,367.70000000000005,1,1,1.0
39,8,1450.39,696.19,480.40999999999985,393.04999999999995,1,1,1.0
39,9,1074.91,440.36,515.47,354.67999999999995,1,1,1.0
39,10,1814.5,976.6,652.4000000000001,260.6,1,1,1.0
40,1,632.48,708.45,620.98,242.0,1,1,1.0
40,2,601.48,1015.9,462.78999999999996,464.73000000000013,1,1,1.0
40,3,895.22,1277.35,575.48,238.0,1,1,1.0
40,4,1995.8,273.61,611.1899999999998,308.64,1,1,1.0
40,5,2471.58,934.59,735.8200000000002,442.1,1,1,1.0
40,6,2031.4,541.19,427.27999999999975,457.1099999999999,1,1,1.0
40,7,1627.46,1402.7,761.3499999999999,367.70000000000005,1,1,1.0
40,8,1450.39,696.19,388.30999999999995,403.30999999999995,1,1,1.0
40,9,1043.57,447.4,515.47,364.26,1,1,1.0
40,10,1707.05,876.83,557.7500000000002,306.66999999999996,1,1,1.0
41,1,632.48,708.45,633.8199999999999,242.0,1,1,1.0
41,2,627.07,1028.69,462.77999999999986,464.74,1,1,1.0
41,3,915.69,1282.47,616.4099999999999,245.62999999999988,1,1,1.0
41,4,1995.8,273.61,613.5200000000002,308.64,1,1,1.0
41,5,2471.58,934.59,735.8200000000002,440.06000000000006,1,1,1.0
41,6,2013.49,689.57,442.6099999999999,467.33000000000004,1,1,1.0
41,7,1630.53,1402.7,761.3500000000001,367.70000000000005,1,1,1.0
41,8,1427.37,691.07,388.3000000000002,390.52999999999986,1,1,1.0
41,9,1012.23,454.43,515.47,373.84999999999997,1,1,1.0
41,10,1658.44,887.06,557.75,275.93000000000006,1,1,1.0
42,1,612.01,703.33,633.8199999999999,242.0,1,1,1.0
42,2,598.93,1076.02,409.08000000000004,464.73,1,1,1.0
42,3,899.49,1277.35,616.4100000000001,245.6300000000001,1,1,1.0
42,4,1995.8,273.61,615.8500000000001,308.64,1,1,1.0
42,5,2471.58,934.59,735.8200000000002,438.02999999999986,1,1,1.0
42,6,1576.02,612.8,611.4200000000001,293.4000000000001,1,1,1.0
42,7,1633.6,1402.7,761.3499999999999,367.70000000000005,1,1,1.0
42,8,1440.16,693.63,421.53999999999996,362.37,1,1,1.0
42,9,980.89,461.47,515.4699999999999,383.42999999999995,1,1,1.0
42,10,1829.85,905.0,527.0500000000002,334.74,1,1,1.0
43,1,627.36,682.87,475.2399999999999,252.26,1,1,1.0
43,2,570.78,1123.35,355.39,464.73,1,1,1.0
43,3,883.29,1272.23,616.4100000000001,245.63999999999987,1,1,1.0
43,4,1995.8,273.61,618.1800000000001,308.64,1,1,1.0
43,5,2471.58,934.59,735.8200000000002,435.9899999999999,1,1,1.0
43,6,1450.7,536.1,567.8899999999999,239.60000000000002,1,1,1.0
43,7,1605.5,1402.7,856.0,367.70000000000005,1,1,1.0
43,8,1414.6,724.3,375.5,469.79999999999995,1,1,1.0
43,9,364.33,591.96,431.05,235.0,1,1,1.0
43,10,1806.82,892.2,552.6800000000001,432.0,1,1,1.0
44,1,560.85,703.3,485.44999999999993,349.51,1,1,1.0
44,2,424.96,680.8,424.44,423.79999999999995,1,1,1.0
44,3,867.08,1267.12,616.41,245.6300000000001,1,1,1.0
44,4,1995.8,273.61,620.51,308.64,1,1,1.0
44,5,2471.58,934.59,735.8200000000002,433.94999999999993,1,1,1.0
44,6,1414.9,554.0,544.8999999999999,280.53999999999996,1,1,1.0
44,7,1613.17,1366.9,856.0,402.2199999999998,1,1,1.0
44,8,1373.67,673.13,375.5,446.7700000000001,1,1,1.0
44,9,290.14,599.63,431.05000000000007,235.0,1,1,1.0
44,10,1771.01,874.29,593.5899999999999,342.51,1,1,1.0
45,1,698.99,808.19,406.1099999999999,288.1099999999999,1,1,1.0
45,2,732.0,555.48,557.4000000000001,231.89,1,1,1.0
45,3,831.27,1228.74,572.9300000000001,245.62999999999988,1,1,1.0
45,4,1995.8,273.61,622.8399999999999,308.64,1,1,1.0
45,5,2471.58,934.59,735.8200000000002,431.90999999999997,1,1,1.0
45,6,1402.11,548.88,537.19,318.91999999999996,1,1,1.0
45,7,1620.85,1331.1,856.0,436.74,1,1,1.0
45,8,1373.67,664.17,384.46000000000004,455.73000000000013,1,1,1.0
45,9,215.94,648.24,385.01000000000005,204.26,1,1,1.0
45,10,1822.2,866.62,542.3999999999999,329.67999999999995,1,1,1.0
46,1,903.7,647.02,290.89999999999986,556.69,1,1,1.0
46,2,1379.25,440.36,613.6500000000001,231.89,1,1,1.0
46,3,828.71,1228.74,503.8899999999999,309.55999999999995,1,1,1.0
46,4,1995.8,273.61,625.1699999999998,308.64,1,1,1.0
46,5,2471.58,934.59,728.1700000000001,431.90999999999997,1,1,1.0
46,6,1409.79,602.61,537.19,318.90999999999997,1,1,1.0
46,7,1620.85,1407.8,856.0,360.03999999999996,1,1,1.0
46,8,1373.67,655.2,393.42999999999984,464.70000000000005,1,1,1.0
46,9,154.54,704.56,318.5,362.84000000000015,1,1,1.0
46,10,1707.11,866.62,644.7,378.2800000000001,1,1,1.0
47,1,893.5,621.4,257.5999999999999,536.2600000000001,1,1,1.0
47,2,2059.8,801.08,480.5999999999999,462.1,1,1,1.0
47,3,849.17,1233.86,544.83,286.5400000000002,1,1,1.0
47,4,1995.8,273.61,627.5000000000002,308.64,1,1,1.0
47,5,2471.58,934.59,720.52,431.90999999999997,1,1,1.0
47,6,1159.07,602.6,662.53,224.29999999999995,1,1,1.0
47,7,1623.41,1395.01,855.9999999999998,360.03999999999996,1,1,1.0
47,8,1532.28,793.35,465.02,339.35,1,1,1.0
47,9,228.73,824.84,259.66999999999996,429.31000000000006,1,1,1.0
47,10,1707.11,912.67,611.49,378.2800000000001,1,1,1.0
48,1,893.5,641.9,257.5999999999999,515.7600000000001,1,1,1.0
48,2,2266.98,1010.86,217.0999999999999,462.1,1,1,1.0
48,3,851.73,1154.53,516.6399999999999,363.29999999999995,1,1,1.0
48,4,1952.3,245.5,699.1000000000001,347.0,1,1,1.0
48,5,2471.58,921.8,720.52,447.29999999999995,1,1,1.0
48,6,1153.96,589.81,619.04,224.30000000000007,1,1,1.0
48,7,1623.41,1320.8,799.6899999999998,434.25,1,1,1.0
48,8,1575.77,785.67,418.99,352.15999999999997,1,1,1.0
48,9,277.34,873.45,259.67,429.30999999999995,1,1,1.0
48,10,1709.67,879.4,611.4899999999998,355.30000000000007,1,1,1.0
49,1,878.15,572.8,334.35,561.8400000000001,1,1,1.0
49,2,2200.47,1064.58,217.10000000000036,462.1100000000001,1,1,1.0
49,3,989.9,970.3,378.48000000000013,547.53,1,1,1.0
49,4,2018.8,76.7,624.8999999999999,508.13000000000005,1,1,1.0
49,5,2471.58,921.8,700.02,447.29999999999995,1,1,1.0
49,6,1258.85,536.1,503.95000000000005,342.0,1,1,1.0
49,7,1623.41,1299.05,799.6899999999998,456.0,1,1,1.0
49,8,1575.77,785.67,418.99,329.13,1,1,1.0
49,9,328.51,858.1,331.28999999999996,482.9999999999999,1,1,1.0
49,10,1750.6,848.7,565.4000000000001,421.81999999999994,1,1,1.0
50,1,883.27,593.3,334.3499999999999,515.75,1,1,1.0
50,2,2200.47,1013.42,217.10000000000036,462.1,1,1,1.0
50,3,931.06,1052.2,465.44000000000005,419.5799999999999,1,1,1.0
50,4,2018.8,161.1,624.8999999999999,408.4,1,1,1.0
50,5,2472.86,933.3,737.0899999999997,428.1500000000001,1,1,1.0
50,6,1289.54,536.1,503.96000000000004,342.0,1,1,1.0
50,7,1623.41,1277.3,799.6899999999998,477.75,1,1,1.0
50,8,1565.54,784.39,411.28999999999996,329.13,1,1,1.0
50,9,328.51,858.1,259.69000000000005,482.9999999999999,1,1,1.0
50,10,1668.73,853.8,642.1700000000001,386.02,1,1,1.0
51,1,878.15,577.95,265.2700000000001,515.75,1,1,1.0
51,2,2072.6,1023.65,380.7800000000002,408.35,1,1,1.0
51,3,872.22,962.7,478.18000000000006,524.4300000000001,1,1,1.0
51,4,1962.52,199.5,693.98,354.6,1,1,1.0
51,5,2474.14,944.8,774.1600000000003,409.0,1,1,1.0
51,6,1228.1,556.6,562.8400000000001,298.47,1,1,1.0
51,7,1623.41,1318.25,825.2899999999997,422.73,1,1,1.0
51,8,1555.31,783.12,403.59000000000015,329.12,1,1,1.0
51,9,313.16,855.54,420.84,426.76,1,1,1.0
51,10,1786.41,866.6,542.3900000000001,455.08000000000004,1,1,1.0
52,1,571.16,626.6,480.14,254.79999999999995,1,1,1.0
52,2,2036.78,1074.8,529.1200000000001,323.94000000000005,1,1,1.0
52,3,941.3,942.2,281.20000000000005,570.52,1,1,1.0
52,4,1993.21,199.5,660.7399999999998,375.04999999999995,1,1,1.0
52,5,2474.14,932.0,756.2600000000002,421.79999999999995,1,1,1.0
52,6,1238.33,582.14,644.6700000000001,237.12,1,1,1.0
52,7,1623.41,1359.2,850.8900000000001,367.70000000000005,1,1,1.0
52,8,1575.75,799.74,381.8699999999999,320.18000000000006,1,1,1.0
52,9,372.0,855.54,264.79999999999995,570.06,1,1,1.0
52,10,1712.22,843.6,601.1800000000001,437.15,1,1,1.0
53,1,622.32,583.11,421.27999999999986,295.75,1,1,1.0
53,2,2036.78,1105.5,529.1200000000001,293.24,1,1,1.0
53,3,588.26,901.27,498.6400000000001,314.73,1,1,1.0
53,4,2023.9,199.5,627.5,395.5,1,1,1.0
53,5,2474.14,932.0,749.4300000000003,421.79999999999995,1,1,1.0
53,6,1225.54,610.28,644.6700000000001,237.12,1,1,1.0
53,7,1613.18,1366.88,891.8199999999999,376.66999999999985,1,1,1.0
53,8,1596.2,816.37,360.1399999999999,311.2299999999999,1,1,1.0
53,9,474.3,980.9,229.02000000000004,570.0600000000001,1,1,1.0
53,10,1709.66,846.16,601.1800000000001,437.15,1,1,1.0
54,1,714.4,483.33,265.20000000000005,467.17,1,1,1.0
54,2,2038.49,1118.3,529.1200000000001,277.03,1,1,1.0
54,3,485.92,717.07,419.37999999999994,475.92999999999995,1,1,1.0
54,4,2023.9,199.5,622.4000000000001,426.20000000000005,1,1,1.0
54,5,2474.14,932.0,742.5900000000001,421.79999999999995,1,1,1.0
54,6,1200.0,610.28,670.21,237.12,1,1,1.0
54,7,1602.94,1374.55,932.7599999999998,385.6500000000001,1,1,1.0
54,8,1596.2,816.37,360.1399999999999,325.92999999999995,1,1,1.0
54,9,553.61,1108.81,349.21000000000004,506.1100000000001,1,1,1.0
54,10,1648.3,846.16,662.5400000000002,360.43999999999994,1,1,1.0
55,1,696.49,578.0,446.80999999999995,321.29999999999995,1,1,1.0
55,2,2040.19,1131.1,529.1199999999999,260.82000000000016,1,1,1.0
55,3,549.9,809.2,375.87,378.68000000000006,1,1,1.0
55,4,2023.9,199.5,617.2999999999997,456.9,1,1,1.0
55,5,2474.14,932.0,735.7600000000002,421.79999999999995,1,1,1.0
55,6,1251.2,597.5,585.75,226.87,1,1,1.0
55,7,1602.94,1374.55,843.2599999999998,385.6500000000001,1,1,1.0
55,8,1596.2,816.37,360.1399999999999,340.63,1,1,1.0
55,9,572.37,1136.94,315.11,495.8799999999999,1,1,1.0
55,10,1730.2,846.16,580.6400000000001,414.14,1,1,1.0
56,1,696.49,639.4,551.71,259.9,1,1,1.0
56,2,2041.9,1143.9,529.1199999999999,244.6099999999999,1,1,1.0
56,3,432.22,906.4,498.67999999999995,245.66999999999996,1,1,1.0
56,4,2023.9,199.5,617.2999999999997,445.4,1,1,1.0
56,5,2474.14,932.0,766.46,421.79999999999995,1,1,1.0
56,6,1284.46,607.73,585.75,226.88,1,1,1.0
56,7,1602.94,1374.55,809.96,385.6500000000001,1,1,1.0
56,8,1596.2,816.37,360.1399999999999,355.33000000000004,1,1,1.0
56,9,591.14,1165.08,281.0,485.6500000000001,1,1,1.0
56,10,1812.05,842.33,503.91999999999985,434.6,1,1,1.0
57,1,658.1,652.19,623.36,259.9,1,1,1.0
57,2,2210.7,1118.32,327.10000000000036,354.58000000000015,1,1,1.0
57,3,644.6,829.65,301.69999999999993,498.94999999999993,1,1,1.0
57,4,2023.9,199.5,617.2999999999997,433.9,1,1,1.0
57,5,2466.47,921.77,766.4500000000003,421.79999999999995,1,1,1.0
57,6,1248.64,587.3,585.75,239.63,1,1,1.0
57,7,1623.41,1374.55,809.9599999999998,385.6500000000001,1,1,1.0
57,8,1596.2,816.37,360.1399999999999,370.0300000000001,1,1,1.0
57,9,609.9,1193.21,246.89999999999998,475.43000000000006,1,1,1.0
57,10,1893.9,838.5,427.1999999999998,455.05999999999995,1,1,1.0
58,1,658.1,652.19,664.3000000000001,242.01,1,1,1.0
58,2,1834.63,865.0,613.6700000000001,239.5,1,1,1.0
58,3,851.82,1011.29,567.7799999999999,327.5799999999999,1,1,1.0
58,4,2023.9,199.5,607.0999999999999,423.70000000000005,1,1,1.0
58,5,2474.14,967.82,766.46,421.79999999999984,1,1,1.0
58,6,1120.73,477.29,552.47,303.60999999999996,1,1,1.0
58,7,1623.41,1374.55,853.49,385.6500000000001,1,1,1.0
58,8,1468.29,683.34,360.1400000000001,370.02999999999986,1,1,1.0
58,9,502.5,1180.42,300.58000000000004,475.42999999999984,1,1,1.0
58,10,1796.69,961.3,463.00999999999976,365.5,1,1,1.0
59,1,649.15,656.0,628.5000000000001,253.54999999999995,1,1,1.0
59,2,1543.0,867.56,355.29999999999995,329.03999999999996,1,1,1.0
59,3,1230.4,752.9,296.64999999999986,481.1,1,1,1.0
59,4,2036.7,199.5,594.3,417.29999999999995,1,1,1.0
59,5,2474.14,967.82,702.46,442.27999999999986,1,1,1.0
59,6,1095.16,477.29,578.04,303.60999999999996,1,1,1.0
59,7,1608.1,1374.55,868.8000000000002,385.6500000000001,1,1,1.0
59,8,1519.45,609.15,342.25,487.7500000000001,1,1,1.0
59,9,543.43,1262.3,326.1700000000001,350.10000000000014,1,1,1.0
59,10,1975.77,963.86,468.1300000000001,365.4999999999999,1,1,1.0
60,1,640.19,659.82,592.71,265.0799999999999,1,1,1.0
60,2,1668.4,1000.59,181.29999999999995,329.0400000000001,1,1,1.0
60,3,1250.87,697.9,296.6500000000001,481.1,1,1,1.0
60,4,2049.5,199.5,581.5,410.9,1,1,1.0
60,5,2469.02,952.46,674.2800000000002,460.24,1,1,1.0
60,6,1069.6,477.29,603.6000000000001,303.60999999999996,1,1,1.0
60,7,1608.1,1374.55,843.2000000000003,385.6500000000001,1,1,1.0
60,8,1506.66,545.2,401.03999999999996,339.4,1,1,1.0
60,9,474.4,1333.9,438.70000000000005,288.6999999999998,1,1,1.0
60,10,1850.41,764.31,496.28999999999974,373.19000000000005,1,1,1.0
61,1,647.87,659.82,654.13,265.0799999999999,1,1,1.0
61,2,1676.08,1009.12,181.30000000000018,315.4,1,1,1.0
61,3,1271.33,642.9,296.6500000000001,481.09000000000003,1,1,1.0
61,4,2049.5,199.5,581.5,422.0,1,1,1.0
61,5,2469.02,952.46,633.3800000000001,444.94000000000005,1,1,1.0
61,6,673.06,500.3,547.3400000000001,206.41000000000003,1,1,1.0
61,7,1608.1,1374.55,840.0,385.6500000000001,1,1,1.0
61,8,1588.5,509.38,255.20000000000005,523.62,1,1,1.0
61,9,320.9,1382.48,523.11,232.5,1,1,1.0
61,10,1732.73,800.12,598.6700000000001,227.38,1,1,1.0
62,1,632.52,680.28,513.3800000000001,357.22,1,1,1.0
62,2,1683.75,1017.65,181.29999999999995,301.7600000000001,1,1,1.0
62,3,1238.07,673.6,388.73,409.4999999999999,1,1,1.0
62,4,2049.5,199.5,581.5,433.1,1,1,1.0
62,5,2469.02,945.64,633.3800000000001,451.7600000000001,1,1,1.0
62,6,603.99,515.7,432.21000000000004,277.99,1,1,1.0
62,7,1608.1,1374.55,836.8000000000002,385.6500000000001,1,1,1.0
62,8,1534.78,514.5,462.4200000000001,352.20000000000005,1,1,1.0
62,9,198.1,1395.27,479.5799999999999,232.5,1,1,1.0
62,10,1566.44,833.38,598.6700000000001,227.38,1,1,1.0
63,1,688.8,805.64,480.10000000000014,510.7600000000001,1,1,1.0
63,2,1691.43,1026.17,181.29999999999995,288.1299999999999,1,1,1.0
63,3,1207.33,712.0,496.26,291.78999999999996,1,1,1.0
63,4,2049.5,199.5,581.5,444.20000000000005,1,1,1.0
63,5,2469.02,938.82,633.3800000000001,458.58000000000004,1,1,1.0
63,6,419.8,561.7,498.71999999999997,214.07999999999993,1,1,1.0
63,7,1608.1,1374.55,833.5999999999999,385.6500000000001,1,1,1.0
63,8,1739.44,557.99,395.8600000000001,495.51,1,1,1.0
63,9,223.7,1426.0,405.40000000000003,206.8800000000001,1,1,1.0
63,10,1574.1,848.73,534.73,227.37999999999988,1,1,1.0
64,1,734.85,971.93,518.4499999999999,510.7600000000001,1,1,1.0
64,2,1676.72,1015.3,181.29999999999995,288.1300000000001,1,1,1.0
64,3,1156.17,760.6,588.3299999999999,261.1,1,1,1.0
64,4,2049.5,199.5,581.5,426.29999999999995,1,1,1.0
64,5,2469.02,932.0,633.3800000000001,465.4000000000001,1,1,1.0
64,6,537.48,487.51,480.81999999999994,331.78999999999996,1,1,1.0
64,7,1608.1,1374.55,830.4000000000001,385.6500000000001,1,1,1.0
64,8,1821.3,793.4,431.70000000000005,428.9,1,1,1.0
64,9,144.4,1426.0,484.70000000000005,206.8800000000001,1,1,1.0
64,10,1576.7,825.7,498.8700000000001,270.8699999999999,1,1,1.0
65,1,727.17,1007.7,518.4499999999999,474.99,1,1,1.0
65,2,1662.01,1004.43,181.29999999999995,288.12,1,1,1.0
65,3,1153.61,732.46,588.3300000000002,291.8499999999999,1,1,1.0
65,4,2047.58,196.3,581.5,426.3,1,1,1.0
65,5,2469.02,909.0,623.1799999999998,524.2,1,1,1.0
65,6,604.0,538.67,480.81999999999994,449.43000000000006,1,1,1.0
65,7,1610.15,1374.55,830.4000000000001,385.6500000000001,1,1,1.0
65,8,1816.2,1026.2,487.97,277.97,1,1,1.0
65,9,167.44,1420.9,459.09999999999997,219.63999999999987,1,1,1.0
65,10,1593.35,701.62,408.0300000000002,375.7700000000001,1,1,1.0
66,1,727.17,1007.7,518.4499999999999,459.5999999999999,1,1,1.0
66,2,1647.3,993.56,181.29999999999995,288.1200000000001,1,1,1.0
66,3,1094.77,668.5,529.53,337.9,1,1,1.0
66,4,2045.66,193.1,581.4999999999998,426.29999999999995,1,1,1.0
66,5,2469.02,909.0,623.1799999999998,514.0,1,1,1.0
66,6,629.6,538.67,424.4999999999999,449.43000000000006,1,1,1.0
66,7,1612.19,1374.55,830.4000000000001,385.6500000000001,1,1,1.0
66,8,1685.7,1013.4,562.1800000000001,275.41999999999996,1,1,1.0
66,9,190.48,1415.8,433.5,232.4000000000001,1,1,1.0
66,10,1610.0,577.55,317.20000000000005,480.6500000000001,1,1,1.0
67,1,727.17,1007.7,482.63,439.0999999999999,1,1,1.0
67,2,1632.59,982.68,181.30000000000018,288.13,1,1,1.0
67,3,1043.6,701.76,465.58000000000015,409.53999999999996,1,1,1.0
67,4,2043.74,189.91,581.4999999999998,426.30000000000007,1,1,1.0
67,5,2469.02,909.0,623.1799999999998,497.3499999999999,1,1,1.0
67,6,629.6,490.1,311.9,513.3,1,1,1.0
67,7,1614.24,1374.55,830.3999999999999,385.6500000000001,1,1,1.0
67,8,1547.55,905.95,574.95,275.41999999999985,1,1,1.0
67,9,197.29,1415.8,426.69000000000005,237.5,1,1,1.0
67,10,1581.86,526.4,440.0400000000002,350.15999999999997,1,1,1.0
68,1,765.6,1015.38,306.1,556.82,1,1,1.0
68,2,1665.84,1003.15,181.30000000000018,288.12,1,1,1.0
68,3,1081.97,934.56,230.23000000000002,552.8400000000001,1,1,1.0
68,4,2041.83,186.71,581.5,426.29999999999995,1,1,1.0
68,5,2469.02,909.0,623.1799999999998,480.70000000000005,1,1,1.0
68,6,688.44,523.4,636.76,265.1,1,1,1.0
68,7,1616.29,1374.55,830.4000000000001,385.6500000000001,1,1,1.0
68,8,1527.08,824.1,447.02,318.89,1,1,1.0
68,9,204.09,1415.8,419.89,242.60000000000014,1,1,1.0
68,10,1597.21,429.19,370.99,432.01000000000005,1,1,1.0
69,1,553.26,1117.7,451.94000000000005,372.6299999999999,1,1,1.0
69,2,1450.95,971.17,296.40999999999985,327.80000000000007,1,1,1.0
69,3,1053.83,1090.6,276.27,509.3600000000001,1,1,1.0
69,4,2041.83,186.71,543.1700000000001,426.29999999999995,1,1,1.0
69,5,2469.02,909.0,629.5799999999999,473.04999999999995,1,1,1.0
69,6,772.86,520.84,583.0400000000001,334.15999999999997,1,1,1.0
69,7,1618.33,1374.55,830.4000000000001,385.6500000000001,1,1,1.0
69,8,1468.24,755.0,411.1600000000001,395.6700000000001,1,1,1.0
69,9,210.9,1415.8,413.08000000000004,247.70000000000005,1,1,1.0
69,10,1589.54,439.42,416.99,432.00999999999993,1,1,1.0
70,1,589.08,1199.6,331.7199999999999,364.93000000000006,1,1,1.0
70,2,1236.05,939.19,411.52,367.48,1,1,1.0
70,3,938.7,1129.0,478.39999999999986,353.29999999999995,1,1,1.0
70,4,2041.83,186.71,612.27,398.18999999999994,1,1,1.0
70,5,2469.02,909.0,635.98,465.4000000000001,1,1,1.0
70,6,783.1,519.99,617.9999999999999,300.9,1,1,1.0
70,7,1618.33,1374.55,822.77,385.6500000000001,1,1,1.0
70,8,1493.8,655.2,298.60000000000014,495.47,1,1,1.0
70,9,172.5,1415.8,474.5,227.20000000000005,1,1,1.0
70,10,1581.86,452.21,452.84000000000015,406.39000000000004,1,1,1.0
71,1,402.32,1025.63,408.47999999999996,403.27,1,1,1.0
71,2,806.26,793.37,562.44,234.42999999999995,1,1,1.0
71,3,872.18,1300.4,616.5200000000001,233.0999999999999,1,1,1.0
71,4,2026.5,186.71,586.6999999999998,423.78999999999996,1,1,1.0
71,5,2469.02,909.0,635.98,493.5,1,1,1.0
71,6,793.33,519.15,652.9699999999999,267.63,1,1,1.0
71,7,1618.33,1374.55,802.27,385.6500000000001,1,1,1.0
71,8,1493.8,618.1,298.60000000000014,505.67999999999995,1,1,1.0
71,9,90.63,1408.13,502.66999999999996,227.19999999999982,1,1,1.0
71,10,1607.44,462.44,445.15999999999985,421.76000000000005,1,1,1.0
72,1,479.1,895.16,254.94999999999993,472.34000000000003,1,1,1.0
72,2,880.45,780.57,562.44,234.43999999999994,1,1,1.0
72,3,877.3,1298.7,616.52,233.0999999999999,1,1,1.0
72,4,2020.53,185.86,586.7,423.78999999999996,1,1,1.0
72,5,2463.91,893.65,635.9700000000003,493.5000000000001,1,1,1.0
72,6,803.56,518.3,687.94,234.37,1,1,1.0
72,7,1618.33,1374.55,802.27,416.35000000000014,1,1,1.0
72,8,1493.8,581.01,298.60000000000014,515.8900000000001,1,1,1.0
72,9,129.01,1431.15,502.65999999999997,227.19999999999982,1,1,1.0
72,10,1814.67,636.41,417.02999999999975,475.4900000000001,1,1,1.0
73,1,448.4,872.1,526.1,382.84000000000003,1,1,1.0
73,2,1128.6,737.1,263.10000000000014,490.2499999999999,1,1,1.0
73,3,882.42,1296.99,616.5100000000001,233.0999999999999,1,1,1.0
73,4,2014.56,185.0,586.7000000000003,423.78999999999996,1,1,1.0
73,5,2463.91,901.3,635.9700000000003,478.20000000000005,1,1,1.0
73,6,803.56,500.39,583.04,282.90999999999997,1,1,1.0
73,7,1633.68,1400.1,850.9199999999998,332.0,1,1,1.0
73,8,1498.92,557.99,434.17999999999984,464.71000000000004,1,1,1.0
73,9,159.7,1408.1,459.2,250.25,1,1,1.0
73,10,1876.06,738.74,427.24000000000024,444.76,1,1,1.0
74,1,599.34,836.3,587.4599999999999,347.0,1,1,1.0
74,2,1261.63,836.9,447.27,254.89999999999998,1,1,1.0
74,3,887.53,1295.29,616.52,233.10000000000014,1,1,1.0
74,4,2008.59,184.15,586.7,423.7900000000001,1,1,1.0
74,5,2463.91,901.3,635.9700000000003,534.5,1,1,1.0
74,6,841.94,487.6,600.96,326.4,1,1,1.0
74,7,1633.68,1400.1,840.6699999999998,332.0,1,1,1.0
74,8,1583.34,685.9,469.96000000000026,367.5000000000001,1,1,1.0
74,9,176.33,1397.89,414.41999999999996,268.1399999999999,1,1,1.0
74,10,1893.97,774.52,427.24,414.0999999999999,1,1,1.0
75,1,612.13,861.88,595.17,267.7199999999999,1,1,1.0
75,2,1225.82,726.9,339.78,385.37,1,1,1.0
75,3,879.86,1285.05,616.5099999999999,233.10000000000014,1,1,1.0
75,4,2008.59,199.5,586.7,393.1,1,1,1.0
75,5,2463.91,901.3,623.19,468.0,1,1,1.0
75,6,831.71,487.6,544.69,377.6,1,1,1.0
75,7,1633.68,1400.1,830.4199999999998,332.0,1,1,1.0
75,8,1555.2,621.94,360.0,513.3599999999999,1,1,1.0
75,9,192.96,1387.68,369.64,286.02,1,1,1.0
75,10,1983.5,754.0,309.5999999999999,503.69000000000005,1,1,1.0
76,1,627.48,843.97,595.1700000000001,267.72,1,1,1.0
76,2,1952.4,632.24,447.21000000000004,352.15999999999997,1,1,1.0
76,3,865.79,1291.45,579.4000000000001,233.0999999999999,1,1,1.0
76,4,2008.59,199.5,571.3100000000002,393.1,1,1,1.0
76,5,2463.91,887.23,623.19,488.45000000000005,1,1,1.0
76,6,968.57,504.23,552.38,387.81999999999994,1,1,1.0
76,7,1641.35,1400.1,819.3499999999999,338.83000000000015,1,1,1.0
76,8,1555.2,818.9,505.79999999999995,260.1,1,1,1.0
76,9,192.96,1387.68,338.93999999999994,286.02,1,1,1.0
76,10,1983.5,894.7,424.6999999999998,362.99,1,1,1.0
77,1,655.62,795.4,595.17,311.19999999999993,1,1,1.0
77,2,2351.5,266.4,792.5999999999999,352.20000000000005,1,1,1.0
77,3,851.72,1297.84,542.28,233.10000000000014,1,1,1.0
77,4,2008.59,199.5,699.2100000000003,393.1,1,1,1.0
77,5,2463.91,873.17,623.19,508.9,1,1,1.0
77,6,1105.44,520.86,560.06,398.03999999999996,1,1,1.0
77,7,1649.03,1400.1,808.2700000000002,345.6700000000001,1,1,1.0
77,8,1514.27,519.58,423.93000000000006,395.7199999999999,1,1,1.0
77,9,192.96,1387.68,364.53999999999996,286.02,1,1,1.0
77,10,1809.54,864.0,565.3600000000001,411.5999999999999,1,1,1.0
78,1,711.9,749.4,587.5000000000001,385.34000000000003,1,1,1.0
78,2,2420.57,279.19,792.5999999999999,334.31,1,1,1.0
78,3,810.78,1272.3,542.29,250.97000000000003,1,1,1.0
78,4,1990.68,158.57,723.5199999999998,409.72999999999996,1,1,1.0
78,5,2474.1,873.17,613.0,508.9,1,1,1.0
78,6,1215.45,648.77,634.25,300.83000000000004,1,1,1.0
78,7,1656.7,1400.1,797.2,352.5,1,1,1.0
78,8,1552.6,478.65,477.70000000000005,280.55000000000007,1,1,1.0
78,9,172.5,1357.03,385.0,309.0,1,1,1.0
78,10,1978.4,761.7,258.4000000000001,588.0999999999999,1,1,1.0
79,1,740.06,749.4,546.6000000000001,385.34000000000003,1,1,1.0
79,2,2474.3,279.19,738.8699999999999,334.31,1,1,1.0
79,3,833.8,1136.7,498.79999999999995,440.28999999999996,1,1,1.0
79,4,1972.78,117.63,747.8199999999999,426.37,1,1,1.0
79,5,2474.1,875.73,613.0,503.3599999999999,1,1,1.0
79,6,1317.78,781.8,516.6200000000001,326.4100000000001,1,1,1.0
79,7,1682.28,1433.36,797.2,352.5,1,1,1.0
79,8,1396.5,478.65,559.6099999999999,423.85,1,1,1.0
79,9,172.5,1380.1,385.0,285.93000000000006,1,1,1.0
79,10,1950.29,731.0,363.2600000000002,496.02,1,1,1.0
80,1,740.06,726.4,546.6000000000001,423.69999999999993,1,1,1.0
80,2,2507.56,179.44,631.4099999999999,418.71,1,1,1.0
80,3,841.47,1019.0,439.93000000000006,524.74,1,1,1.0
80,4,2016.3,104.8,561.0000000000002,646.4000000000001,1,1,1.0
80,5,2474.1,878.28,613.0,497.8299999999999,1,1,1.0
80,6,1361.27,615.5,460.3299999999999,515.74,1,1,1.0
80,7,1677.17,1407.78,784.4299999999998,352.5,1,1,1.0
80,8,1411.8,478.65,291.0,518.5500000000001,1,1,1.0
80,9,172.5,1395.4,402.9,270.6299999999999,1,1,1.0
80,10,1950.29,731.0,273.71000000000004,554.9000000000001,1,1,1.0
81,1,740.06,693.1,546.6000000000001,456.9999999999999,1,1,1.0
81,2,2507.56,240.8,690.2400000000002,357.34999999999997,1,1,1.0
81,3,823.6,1019.0,457.80000000000007,491.5,1,1,1.0
81,4,2016.3,140.6,668.3999999999999,446.9,1,1,1.0
81,5,2474.1,880.84,613.0,492.2900000000001,1,1,1.0
81,6,1535.24,531.08,460.3299999999999,405.7199999999999,1,1,1.0
81,7,1677.17,1407.78,797.23,352.5,1,1,1.0
81,8,1370.87,440.27,291.0,518.5600000000001,1,1,1.0
81,9,168.23,1395.4,407.16999999999996,270.6299999999999,1,1,1.0
81,10,1960.52,746.3,291.6100000000001,549.8300000000002,1,1,1.0
82,1,740.06,649.6,533.8400000000001,487.7099999999999,1,1,1.0
82,2,2507.56,240.8,708.1399999999999,357.34999999999997,1,1,1.0
82,3,831.28,967.8,480.81999999999994,537.5800000000002,1,1,1.0
82,4,1939.57,161.1,734.8999999999999,395.69999999999993,1,1,1.0
82,5,2474.1,883.4,613.0,486.7600000000001,1,1,1.0
82,6,1548.03,584.8,572.8700000000001,259.9000000000001,1,1,1.0
82,7,1666.93,1407.78,807.47,352.5,1,1,1.0
82,8,1460.41,673.08,487.99,454.62,1,1,1.0
82,9,163.97,1395.4,411.42999999999995,270.6299999999999,1,1,1.0
82,10,1914.5,756.5,383.67999999999984,531.96,1,1,1.0
83,1,783.5,624.02,495.52,456.98,1,1,1.0
83,2,2571.52,230.57,534.1799999999998,554.3299999999999,1,1,1.0
83,3,938.7,696.6,424.56999999999994,550.4,1,1,1.0
83,4,2024.0,161.1,630.0,431.5,1,1,1.0
83,5,2474.1,885.96,613.0,481.22,1,1,1.0
83,6,1527.6,587.36,496.10000000000014,313.64,1,1,1.0
83,7,1656.7,1407.78,817.7,352.5,1,1,1.0
83,8,1468.09,834.2,544.3100000000002,280.71000000000004,1,1,1.0
83,9,159.7,1395.4,415.7,270.6299999999999,1,1,1.0
83,10,2032.2,720.7,242.99999999999977,567.76,1,1,1.0
84,1,850.02,603.5,472.48,454.47,1,1,1.0
84,2,2778.74,440.35,349.96000000000004,597.85,1,1,1.0
84,3,931.03,742.6,424.55999999999995,504.4,1,1,1.0
84,4,2006.09,222.5,699.1099999999999,364.98,1,1,1.0
84,5,2474.1,888.52,613.0,475.68000000000006,1,1,1.0
84,6,1435.5,592.5,542.2,328.97,1,1,1.0
84,7,1654.14,1400.1,809.9999999999998,352.5,1,1,1.0
84,8,1462.97,870.0,603.1299999999999,237.20000000000005,1,1,1.0
84,9,155.43,1395.4,419.96999999999997,270.6299999999999,1,1,1.0
84,10,2052.67,769.3,376.02999999999975,455.20000000000005,1,1,1.0
85,1,819.32,641.87,485.27999999999986,454.4799999999999,1,1,1.0
85,2,2855.5,624.54,293.6999999999998,597.8600000000001,1,1,1.0
85,3,913.12,842.37,424.56000000000006,504.4,1,1,1.0
85,4,1931.9,184.1,773.2999999999997,390.59000000000003,1,1,1.0
85,5,2474.1,888.52,613.0,488.48,1,1,1.0
85,6,1435.5,592.5,493.5999999999999,390.4,1,1,1.0
85,7,1651.58,1392.43,802.3000000000002,352.5,1,1,1.0
85,8,1583.21,864.88,572.3899999999999,237.19999999999993,1,1,1.0
85,9,151.17,1395.4,424.23,270.6299999999999,1,1,1.0
85,10,1963.1,736.04,442.5999999999999,345.1600000000001,1,1,1.0
86,1,884.55,566.39,507.04999999999995,426.35,1,1,1.0
86,2,2881.08,696.18,265.52,536.42,1,1,1.0
86,3,872.18,804.0,424.57000000000005,504.3900000000001,1,1,1.0
86,4,1934.46,150.84,773.3000000000002,416.15999999999997,1,1,1.0
86,5,2508.65,859.11,561.7999999999997,517.89,1,1,1.0
86,6,1074.78,884.1,537.1200000000001,561.85,1,1,1.0
86,7,1664.38,1371.96,784.4200000000001,436.94000000000005,1,1,1.0
86,8,1552.51,807.34,540.3900000000001,308.81000000000006,1,1,1.0
86,9,146.9,1395.4,428.5,270.6299999999999,1,1,1.0
86,10,1973.33,707.92,418.32000000000016,402.69999999999993,1,1,1.0
87,1,949.79,490.9,528.81,398.23,1,1,1.0
87,2,2883.64,730.71,265.52,604.24,1,1,1.0
87,3,943.82,844.9,519.18,350.92999999999995,1,1,1.0
87,4,1947.25,132.93,796.3499999999999,364.96999999999997,1,1,1.0
87,5,2543.2,829.7,510.60000000000036,547.3,1,1,1.0
87,6,1026.18,1045.3,383.6199999999999,500.4200000000001,1,1,1.0
87,7,1661.82,1382.19,784.4199999999998,436.94000000000005,1,1,1.0
87,8,1521.81,749.8,508.3900000000001,380.43000000000006,1,1,1.0
87,9,134.1,1395.4,466.9,270.6299999999999,1,1,1.0
87,10,1983.57,679.8,394.03,460.24,1,1,1.0
88,1,1187.71,519.0,577.3899999999999,234.5,1,1,1.0
88,2,2886.2,765.25,265.52,672.05,1,1,1.0
88,3,956.61,844.87,547.2900000000001,281.88,1,1,1.0
88,4,1931.9,150.8,796.3499999999999,336.87,1,1,1.0
88,5,2543.2,829.7,510.60000000000036,539.5999999999999,1,1,1.0
88,6,1031.29,1083.7,368.30999999999995,546.45,1,1,1.0
88,7,1661.82,1382.19,774.1800000000001,416.51,1,1,1.0
88,8,1575.5,783.06,416.3299999999999,411.1400000000001,1,1,1.0
88,9,116.19,1206.1,354.31,485.5500000000002,1,1,1.0
88,10,2016.8,731.0,278.89999999999986,521.6099999999999,1,1,1.0
89,1,1233.8,501.1,518.5,301.0,1,1,1.0
89,2,2901.55,842.0,395.9499999999998,526.2,1,1,1.0
89,3,943.82,791.1,519.18,368.90999999999997,1,1,1.0
89,4,2029.1,163.6,699.1500000000001,352.19999999999993,1,1,1.0
89,5,2576.5,806.68,492.6500000000001,682.92,1,1,1.0
89,6,918.73,1045.33,442.45000000000005,546.44,1,1,1.0
89,7,1661.82,1382.19,774.1800000000001,410.3699999999999,1,1,1.0
89,8,1396.42,762.59,416.31999999999994,411.14,1,1,1.0
89,9,116.19,1206.1,333.81,485.5500000000002,1,1,1.0
89,10,2032.15,797.5,445.1500000000001,401.3800000000001,1,1,1.0
90,1,1233.8,501.1,492.9000000000001,265.19999999999993,1,1,1.0
90,2,2806.89,783.2,534.1100000000001,411.0,1,1,1.0
90,3,925.91,765.52,519.18,343.28,1,1,1.0
90,4,2007.35,172.55,720.9000000000001,352.2,1,1,1.0
90,5,2520.2,806.68,548.9500000000003,680.32,1,1,1.0
90,6,831.75,1037.65,347.75,546.4499999999998,1,1,1.0
90,7,1661.82,1382.19,774.1800000000001,404.23,1,1,1.0
90,8,1593.4,637.24,378.0,457.1600000000001,1,1,1.0
90,9,149.4,1160.1,295.5,531.5500000000002,1,1,1.0
90,10,2032.15,771.9,419.5499999999997,426.98000000000013,1,1,1.0
91,1,1223.6,501.1,521.0,247.29999999999995,1,1,1.0
91,2,2952.7,545.28,303.9000000000001,613.1200000000001,1,1,1.0
91,3,964.28,852.5,519.19,281.8800000000001,1,1,1.0
91,4,1985.6,181.51,742.6500000000001,352.20000000000005,1,1,1.0
91,5,2509.97,834.82,625.73,577.9799999999999,1,1,1.0
91,6,803.6,633.44,301.7099999999999,628.3599999999999,1,1,1.0
91,7,1661.82,1382.19,774.1800000000001,398.0899999999999,1,1,1.0
91,8,1611.31,698.63,441.99000000000024,495.57000000000005,1,1,1.0
91,9,149.4,1193.4,295.5,498.25,1,1,1.0
91,10,2055.18,771.9,401.62000000000035,426.98000000000013,1,1,1.0
92,1,1279.88,529.24,518.4199999999998,390.55999999999995,1,1,1.0
92,2,2671.29,358.52,593.0100000000002,462.18000000000006,1,1,1.0
92,3,1079.4,957.4,271.0,606.7800000000001,1,1,1.0
92,4,1896.1,166.2,832.1500000000001,367.51000000000005,1,1,1.0
92,5,2499.73,839.93,671.77,516.57,1,1,1.0
92,6,749.88,692.3,470.5200000000001,451.81999999999994,1,1,1.0
92,7,1661.82,1382.19,774.1800000000001,391.95000000000005,1,1,1.0
92,8,1731.5,660.3,321.8000000000002,533.9000000000001,1,1,1.0
92,9,149.4,1201.05,295.5,490.60000000000014,1,1,1.0
92,10,1986.14,774.5,468.0999999999997,437.1700000000001,1,1,1.0
93,1,1251.74,480.6,518.4200000000001,472.4599999999999,1,1,1.0
93,2,2638.03,261.31,669.77,347.09,1,1,1.0
93,3,984.7,1185.1,503.79999999999995,345.8000000000002,1,1,1.0
93,4,1980.5,94.6,737.5,451.9,1,1,1.0
93,5,2499.73,839.93,646.1700000000001,537.07,1,1,1.0
93,6,680.8,646.28,514.05,441.55999999999995,1,1,1.0
93,7,1661.82,1382.19,774.1800000000001,385.80999999999995,1,1,1.0
93,8,851.45,1005.7,639.05,242.20000000000005,1,1,1.0
93,9,149.4,1208.7,295.5,482.95000000000005,1,1,1.0
93,10,1945.2,846.1,544.8999999999999,352.80000000000007,1,1,1.0
